<?xml version="1.0" encoding="UTF-8" standalone="no"?>
<!-- Created with Inkscape (http://www.inkscape.org/) -->

<svg
   xmlns:dc="http://purl.org/dc/elements/1.1/"
   xmlns:cc="http://creativecommons.org/ns#"
   xmlns:rdf="http://www.w3.org/1999/02/22-rdf-syntax-ns#"
   xmlns:svg="http://www.w3.org/2000/svg"
   xmlns="http://www.w3.org/2000/svg"
   xmlns:sodipodi="http://sodipodi.sourceforge.net/DTD/sodipodi-0.dtd"
   xmlns:inkscape="http://www.inkscape.org/namespaces/inkscape"
   width="8.5in"
   height="3.25in"
   viewBox="0 0 215.9 82.55"
   version="1.1"
   id="svg8"
   inkscape:version="0.92.4 (5da689c313, 2019-01-14)"
   sodipodi:docname="logo-full.svg">
  <defs
     id="defs2">
    <clipPath
       id="clipPath28"
       clipPathUnits="userSpaceOnUse">
      <path
         inkscape:connector-curvature="0"
         id="path26"
         d="M 0,500 H 500 V 0 H 0 Z" />
    </clipPath>
  </defs>
  <sodipodi:namedview
     id="base"
     pagecolor="#ffffff"
     bordercolor="#666666"
     borderopacity="1.0"
     inkscape:pageopacity="0.0"
     inkscape:pageshadow="2"
     inkscape:zoom="0.35"
     inkscape:cx="94.285714"
     inkscape:cy="560"
     inkscape:document-units="mm"
     inkscape:current-layer="layer1"
     showgrid="false"
     inkscape:window-width="2560"
     inkscape:window-height="1387"
     inkscape:window-x="-8"
     inkscape:window-y="-8"
     inkscape:window-maximized="1"
     inkscape:snap-page="false"
     units="in"
     height="8.25in" />
  <metadata
     id="metadata5">
    <rdf:RDF>
      <cc:Work
         rdf:about="">
        <dc:format>image/svg+xml</dc:format>
        <dc:type
           rdf:resource="http://purl.org/dc/dcmitype/StillImage" />
        <dc:title></dc:title>
      </cc:Work>
    </rdf:RDF>
  </metadata>
  <g
     inkscape:label="Layer 1"
     inkscape:groupmode="layer"
     id="layer1"
     transform="translate(0,-214.45)">
    <g
       transform="matrix(0.88612386,0,0,-0.90079308,-87.362871,649.78885)"
       inkscape:label="Acme Logos"
       id="g140">
      <g
         id="g144">
        <g
           id="g152"
           transform="translate(178.40003,431.76244)">
          <path
             d="M 0,0 C 2.163,0 4.219,1.623 4.869,2.705 V 6.167 C 4.544,6.383 3.029,7.032 1.082,7.032 -1.515,7.032 -3.3,5.68 -3.3,3.462 -3.3,1.515 -2.001,0 0,0 m 0.649,10.386 c 2.272,0 4.274,-0.649 4.274,-0.649 0.053,3.408 -0.596,4.76 -3.355,4.76 -2.488,0 -4.922,-0.649 -6.058,-0.973 -0.649,-0.162 -1.028,0.27 -1.19,0.865 l -0.433,2.002 c -0.162,0.703 0.216,1.082 0.703,1.244 0.379,0.163 3.462,1.244 7.466,1.244 6.924,0 7.573,-4.219 7.573,-9.629 V -2.272 C 9.629,-2.813 9.141,-3.3 8.601,-3.3 H 7.086 c -0.487,0 -0.703,0.217 -0.919,0.758 l -0.541,1.46 c -1.191,-1.136 -3.3,-2.758 -6.654,-2.758 -4.057,0 -6.978,2.758 -6.978,7.248 0,3.949 3.137,6.978 8.655,6.978"
             style="fill:#646484;fill-opacity:1;fill-rule:nonzero;stroke:none"
             id="path154"
             inkscape:connector-curvature="0" />
        </g>
        <g
           id="g156"
           transform="translate(204.58043,450.64174)">
          <path
             d="M 0,0 C 3.3,0 5.842,-1.352 7.844,-3.84 8.222,-4.328 8.114,-4.977 7.627,-5.355 L 5.842,-6.978 c -0.649,-0.595 -1.028,-0.163 -1.46,0.216 -0.974,1.082 -2.543,2.056 -4.328,2.056 -3.516,0 -6.275,-2.976 -6.275,-6.654 0,-3.732 2.705,-6.708 6.221,-6.708 2.759,0 3.895,1.407 5.031,2.488 0.487,0.488 0.973,0.488 1.46,0.109 l 1.461,-1.19 c 0.541,-0.433 0.757,-0.974 0.379,-1.515 -1.732,-2.759 -4.652,-4.544 -8.385,-4.544 -6.059,0 -11.306,4.815 -11.306,11.306 C -11.36,-5.031 -6.004,0 0,0"
             style="fill:#646484;fill-opacity:1;fill-rule:nonzero;stroke:none"
             id="path158"
             inkscape:connector-curvature="0" />
        </g>
        <g
           id="g160"
           transform="translate(218.31983,449.07284)">
          <path
             d="m 0,0 c 0,0.541 0.487,1.028 1.027,1.028 h 1.515 c 0.488,0 0.758,-0.271 0.92,-0.649 l 0.595,-1.84 c 0.487,0.488 2.975,3.03 7.141,3.03 3.137,0 5.409,-1.244 6.978,-3.462 0.595,0.595 3.732,3.462 7.843,3.462 6.6,0 8.926,-4.652 8.926,-10.278 v -10.873 c 0,-0.541 -0.433,-1.028 -1.028,-1.028 h -3.029 c -0.595,0 -1.028,0.487 -1.028,1.028 v 11.089 c 0,3.409 -1.568,5.356 -4.49,5.356 -3.299,0 -5.193,-2.327 -5.572,-2.651 0.109,-0.487 0.163,-1.514 0.163,-2.597 v -11.197 c 0,-0.541 -0.487,-1.028 -1.028,-1.028 h -2.867 c -0.595,0 -1.028,0.487 -1.028,1.028 v 11.089 c 0,3.463 -1.569,5.356 -4.598,5.356 -3.245,0 -5.085,-2.543 -5.355,-3.246 v -13.199 c 0,-0.541 -0.487,-1.028 -1.028,-1.028 H 1.027 C 0.487,-20.61 0,-20.123 0,-19.582 Z"
             style="fill:#646484;fill-opacity:1;fill-rule:nonzero;stroke:none"
             id="path162"
             inkscape:connector-curvature="0" />
        </g>
        <g
           id="g164"
           transform="translate(274.19823,441.66204)">
          <path
             d="M 0,0 C -0.162,2.596 -2.326,4.814 -4.976,4.814 -7.897,4.814 -10.17,2.705 -10.494,0 Z m -4.922,8.98 c 5.625,0 9.953,-4.22 9.953,-10.008 0,-0.378 -0.054,-1.082 -0.108,-1.46 -0.054,-0.542 -0.487,-0.92 -0.974,-0.92 h -14.714 c 0.163,-2.921 2.705,-5.788 6.221,-5.788 1.948,0 3.733,0.865 4.815,1.569 0.649,0.378 1.028,0.595 1.46,0.054 l 1.515,-2.056 c 0.379,-0.433 0.541,-0.865 -0.108,-1.406 -1.569,-1.353 -4.382,-2.705 -8.007,-2.705 -6.545,0 -10.872,5.139 -10.872,11.36 0,6.113 4.327,11.36 10.819,11.36"
             style="fill:#646484;fill-opacity:1;fill-rule:nonzero;stroke:none"
             id="path166"
             inkscape:connector-curvature="0" />
        </g>
        <g
           id="g168"
           transform="translate(306.05813,450.64174)">
          <path
             d="M 0,0 C 3.3,0 5.842,-1.352 7.844,-3.84 8.222,-4.328 8.114,-4.977 7.627,-5.355 L 5.842,-6.978 c -0.649,-0.595 -1.028,-0.163 -1.46,0.216 -0.974,1.082 -2.543,2.056 -4.328,2.056 -3.516,0 -6.275,-2.976 -6.275,-6.654 0,-3.732 2.705,-6.708 6.221,-6.708 2.759,0 3.895,1.407 5.031,2.488 0.487,0.488 0.973,0.488 1.46,0.109 l 1.461,-1.19 c 0.541,-0.433 0.757,-0.974 0.379,-1.515 -1.732,-2.759 -4.652,-4.544 -8.385,-4.544 -6.059,0 -11.306,4.815 -11.306,11.306 C -11.36,-5.031 -6.004,0 0,0"
             style="fill:#646484;fill-opacity:1;fill-rule:nonzero;stroke:none"
             id="path170"
             inkscape:connector-curvature="0" />
        </g>
        <g
           id="g172"
           transform="translate(329.10063,432.57404)">
          <path
             d="m 0,0 c 3.409,0 6.113,3.03 6.113,6.762 0,3.624 -2.704,6.6 -6.113,6.6 -3.408,0 -6.113,-2.976 -6.113,-6.6 C -6.113,3.03 -3.408,0 0,0 m 0,18.068 c 6.059,0 10.928,-5.194 10.928,-11.306 C 10.928,0.541 6.059,-4.652 0,-4.652 c -6.058,0 -10.927,5.193 -10.927,11.414 0,6.112 4.869,11.306 10.927,11.306"
             style="fill:#646484;fill-opacity:1;fill-rule:nonzero;stroke:none"
             id="path174"
             inkscape:connector-curvature="0" />
        </g>
        <g
           id="g176"
           transform="translate(127.02153,439.28224)">
          <path
             d="m 0,0 c -3.135,0.037 -5.705,2.607 -5.742,5.744 -0.036,3.135 2.477,5.647 5.612,5.612 C 3.006,11.321 5.577,8.749 5.613,5.613 5.65,2.476 3.137,-0.036 0,0 m 12.721,-11.702 c 0,0 4.986,35.847 -11.52,49.271 l -0.893,2.452 c -0.19,0.521 -0.923,0.533 -1.129,0.017 L -1.793,37.61 c -16.213,-13.043 -10.516,-49.025 -10.516,-49.025 -12.534,-9.85 -9.485,-6.159 -2.332,-23.531 1.363,-3.317 3.753,-2.535 4.834,-0.141 1.08,2.391 3.466,7.673 3.466,7.673 h 1.133 l 4.379,-13.991 c 0.393,-1.257 2.172,-1.257 2.566,0 l 4.378,13.991 h 1.04 c 0,0 2.59,-5.494 3.726,-7.912 1.136,-2.419 3.543,-3.255 4.832,0.031 6.755,17.212 9.771,13.453 -2.992,23.593"
             style="fill:#313149;fill-opacity:1;fill-rule:nonzero;stroke:none"
             id="path178"
             inkscape:connector-curvature="0" />
        </g>
      </g>
    </g>
  </g>
</svg>
